Produce an NIH-compliant enrollment table. — table_nih_enrollment • codified
…
table_nih_enrollment(ds_1) %>%
  tidyr::spread(key=gender, value=n)
#> # A tibble: 21 × 5
#>    race                                      ethnicity      Female  Male Unkno…¹
#>    <fct>                                     <fct>           <int> <int>   <int>
#>  1 American Indian/Alaska Native             Not Hispanic …      0     0       0
#>  2 American Indian/Alaska Native             Hispanic or L…      0     0       0
#>  3 American Indian/Alaska Native             Unknown/Not R…      0     0       0
#>  4 Asian                                     Not Hispanic …      0     0       0
#>  5 Asian                                     Hispanic or L…      0     0       0
#>  6 Asian                                     Unknown/Not R…      0     0       0
#>  7 Native Hawaiian or Other Pacific Islander Not Hispanic …      0     0       0
#>  8 Native Hawaiian or Other Pacific Islander Hispanic or L…      0     0       0
#>  9 Native Hawaiian or Other Pacific Islander Unknown/Not R…      0     0       0
#> 10 Black or African American                 Not Hispanic …      0     2       0
#> # … with 11 more rows, and abbreviated variable name ¹​`Unknown/Not Reported`
#> # ℹ Use `print(n = ...)` to see more rows
…
