Produce an NIH-compliant enrolment table. — table_nih_enrollment • codified
…
table_nih_enrollment(ds_1) %>%
  tidyr::spread(key=gender, value=n)
#> # A tibble: 21 x 5
#>    race                    ethnicity            Female  Male `Unknown/Not Repo…
#>    <fct>                   <fct>                 <int> <int>              <int>
#>  1 American Indian/Alaska… Not Hispanic or Lat…      0     0                  0
#>  2 American Indian/Alaska… Hispanic or Latino        0     0                  0
#>  3 American Indian/Alaska… Unknown/Not Reporte…      0     0                  0
#>  4 Asian                   Not Hispanic or Lat…      0     0                  0
#>  5 Asian                   Hispanic or Latino        0     0                  0
#>  6 Asian                   Unknown/Not Reporte…      0     0                  0
#>  7 Native Hawaiian or Oth… Not Hispanic or Lat…      0     0                  0
#>  8 Native Hawaiian or Oth… Hispanic or Latino        0     0                  0
#>  9 Native Hawaiian or Oth… Unknown/Not Reporte…      0     0                  0
#> 10 Black or African Ameri… Not Hispanic or Lat…      0     2                  0
#> # ... with 11 more rows
…
